\relax 
\select@language{english}
\@writefile{toc}{\select@language{english}}
\@writefile{lof}{\select@language{english}}
\@writefile{lot}{\select@language{english}}
\bibcite{}{1}
\bibcite{}{2}
\bibcite{}{3}
