\relax 
\providecommand\hyper@newdestlabel[2]{}
\providecommand\HyperFirstAtBeginDocument{\AtBeginDocument}
\HyperFirstAtBeginDocument{\ifx\hyper@anchor\@undefined
\global\let\oldcontentsline\contentsline
\gdef\contentsline#1#2#3#4{\oldcontentsline{#1}{#2}{#3}}
\global\let\oldnewlabel\newlabel
\gdef\newlabel#1#2{\newlabelxx{#1}#2}
\gdef\newlabelxx#1#2#3#4#5#6{\oldnewlabel{#1}{{#2}{#3}}}
\AtEndDocument{\ifx\hyper@anchor\@undefined
\let\contentsline\oldcontentsline
\let\newlabel\oldnewlabel
\fi}
\fi}
\global\let\hyper@last\relax 
\gdef\HyperFirstAtBeginDocument#1{#1}
\providecommand\HyField@AuxAddToFields[1]{}
\providecommand\HyField@AuxAddToCoFields[2]{}
\@writefile{toc}{\contentsline {section}{\numberline {I}Introduction}{1}{section.1}}
\@writefile{toc}{\contentsline {subsection}{\numberline {I}Background}{1}{subsection.1.1}}
\@writefile{toc}{\contentsline {subsection}{\numberline {II}Motivation}{1}{subsection.1.2}}
\@writefile{toc}{\contentsline {section}{\numberline {II}Prior work}{2}{section.2}}
\@writefile{toc}{\contentsline {section}{\numberline {III}Methods}{3}{section.3}}
\@writefile{toc}{\contentsline {subsection}{\numberline {I}AVX2}{3}{subsection.3.1}}
\@writefile{toc}{\contentsline {subsection}{\numberline {II}Cache}{3}{subsection.3.2}}
\@writefile{toc}{\contentsline {section}{\numberline {IV}Testing}{4}{section.4}}
\@writefile{toc}{\contentsline {subsection}{\numberline {I}Hardware}{4}{subsection.4.1}}
\@writefile{toc}{\contentsline {subsection}{\numberline {II}Data}{4}{subsection.4.2}}
\@writefile{toc}{\contentsline {section}{\numberline {V}Results}{4}{section.5}}
\@writefile{toc}{\contentsline {section}{\numberline {VI}Conclusion}{5}{section.6}}
\bibcite{}{1}
\bibcite{}{2}
\bibcite{}{3}
\bibcite{}{4}
\bibcite{}{5}
\bibcite{}{6}
\bibcite{}{7}
\bibcite{}{8}
\bibcite{}{9}
